hbf.vcd
$scope module HBFMACUpsampler $end
$var wire 24 ! hbfmacupsampler_hbfmacupsampler_a $end
$var wire 1 " hbfmacupsampler_hbfmacupsampler_rsta $end
$var wire 24 # hbfmacupsampler_hbfmacupsampler_ar $end
$var wire 1 $ hbfmacupsampler_hbfmacupsampler_cea0 $end
$var wire 18 % hbfmacupsampler_hbfmacupsampler_b $end
$var wire 1 & hbfmacupsampler_hbfmacupsampler_rstb $end
$var wire 18 ' hbfmacupsampler_hbfmacupsampler_br0 $end
$var wire 1 ( hbfmacupsampler_hbfmacupsampler_ceb0 $end
$var wire 18 ) hbfmacupsampler_hbfmacupsampler_br1 $end
$var wire 1 * hbfmacupsampler_hbfmacupsampler_ceb1 $end
$var wire 48 + hbfmacupsampler_hbfmacupsampler_c $end
$var wire 24 , hbfmacupsampler_hbfmacupsampler_d $end
$var wire 1 - hbfmacupsampler_hbfmacupsampler_rstd $end
$var wire 24 . hbfmacupsampler_hbfmacupsampler_dr $end
$var wire 1 / hbfmacupsampler_hbfmacupsampler_ced0 $end
$var wire 25 0 hbfmacupsampler_hbfmacupsampler_ad $end
$var wire 1 1 hbfmacupsampler_hbfmacupsampler_rstad $end
$var wire 25 2 hbfmacupsampler_hbfmacupsampler_adr $end
$var wire 1 3 hbfmacupsampler_hbfmacupsampler_cead0 $end
$var wire 48 4 hbfmacupsampler_hbfmacupsampler_m $end
$var wire 1 5 hbfmacupsampler_hbfmacupsampler_rstm $end
$var wire 48 6 hbfmacupsampler_hbfmacupsampler_mr $end
$var wire 1 7 hbfmacupsampler_hbfmacupsampler_cem0 $end
$var wire 48 8 hbfmacupsampler_hbfmacupsampler_p $end
$var wire 1 9 hbfmacupsampler_hbfmacupsampler_rstp $end
$var wire 48 : hbfmacupsampler_hbfmacupsampler_pr $end
$var wire 1 ; hbfmacupsampler_hbfmacupsampler_cep0 $end
$var wire 1 < hbfmacupsampler_hbfmacupsampler_presub $end
$var wire 1 = hbfmacupsampler_hbfmacupsampler_postsub $end
$var wire 1 > hbfmacupsampler_hbfmacupsampler_coeff_srstorage_load_stb $end
$var wire 1 ? hbfmacupsampler_hbfmacupsampler_coeff_srstorage_load_ack $end
$var wire 1 @ hbfmacupsampler_hbfmacupsampler_coeff_srstorage_out_stb $end
$var wire 1 A hbfmacupsampler_hbfmacupsampler_coeff_srstorage_out_ack $end
$var wire 1 B hbfmacupsampler_hbfmacupsampler_coeff_srstorage_out_eop $end
$var wire 18 C hbfmacupsampler_hbfmacupsampler_coeff_srstorage_out_payload_data $end
$var wire 18 D hbfmacupsampler_hbfmacupsampler_coeff_srstorage0 $end
$var wire 18 E hbfmacupsampler_hbfmacupsampler_coeff_srstorage1 $end
$var wire 18 F hbfmacupsampler_hbfmacupsampler_coeff_srstorage2 $end
$var wire 18 G hbfmacupsampler_hbfmacupsampler_coeff_srstorage3 $end
$var wire 18 H hbfmacupsampler_hbfmacupsampler_coeff_srstorage4 $end
$var wire 18 I hbfmacupsampler_hbfmacupsampler_coeff_srstorage5 $end
$var wire 18 J hbfmacupsampler_hbfmacupsampler_coeff_srstorage6 $end
$var wire 18 K hbfmacupsampler_hbfmacupsampler_coeff_srstorage7 $end
$var wire 18 L hbfmacupsampler_hbfmacupsampler_coeff_srstorage8 $end
$var wire 18 M hbfmacupsampler_hbfmacupsampler_coeff_srstorage9 $end
$var wire 10 N hbfmacupsampler_hbfmacupsampler_coeff_srstorage_q $end
$var wire 1 O hbfmacupsampler_hbfmacupsampler_sample_srstorage_load_stb $end
$var wire 1 P hbfmacupsampler_hbfmacupsampler_sample_srstorage_load_ack $end
$var wire 1 Q hbfmacupsampler_hbfmacupsampler_sample_srstorage_load_eop $end
$var wire 24 R hbfmacupsampler_hbfmacupsampler_sample_srstorage_load_payload_data $end
$var wire 1 S hbfmacupsampler_hbfmacupsampler_sample_srstorage_out_stb $end
$var wire 1 T hbfmacupsampler_hbfmacupsampler_sample_srstorage_out_ack $end
$var wire 1 U hbfmacupsampler_hbfmacupsampler_sample_srstorage_out_eop $end
$var wire 24 V hbfmacupsampler_hbfmacupsampler_sample_srstorage_out_payload_data $end
$var wire 24 W hbfmacupsampler_hbfmacupsampler_sample_srstorage0 $end
$var wire 24 X hbfmacupsampler_hbfmacupsampler_sample_srstorage1 $end
$var wire 24 Y hbfmacupsampler_hbfmacupsampler_sample_srstorage2 $end
$var wire 24 Z hbfmacupsampler_hbfmacupsampler_sample_srstorage3 $end
$var wire 24 [ hbfmacupsampler_hbfmacupsampler_sample_srstorage4 $end
$var wire 24 \ hbfmacupsampler_hbfmacupsampler_sample_srstorage5 $end
$var wire 24 ] hbfmacupsampler_hbfmacupsampler_sample_srstorage6 $end
$var wire 24 ^ hbfmacupsampler_hbfmacupsampler_sample_srstorage7 $end
$var wire 24 _ hbfmacupsampler_hbfmacupsampler_sample_srstorage8 $end
$var wire 10 ` hbfmacupsampler_hbfmacupsampler_sample_srstorage_q $end
$var wire 1 a hbfmacupsampler_hbfmacupsampler_output_stb $end
$var wire 1 b hbfmacupsampler_hbfmacupsampler_output_ack $end
$var wire 1 c hbfmacupsampler_hbfmacupsampler_output_last $end
$var wire 1 d hbfmacupsampler_hbfmacupsampler_output_eop $end
$var wire 48 e hbfmacupsampler_hbfmacupsampler_output_payload_data $end
$var wire 48 f hbfmacupsampler_hbfmacupsampler_bias $end
$var wire 4 g hbfmacupsampler_hbfmacupsampler_eop_pipe $end
$var wire 1 h hbfmacupsampler_hbfmacupsampler_ack_dsp $end
$var wire 1 i hbfmacupsampler_hbfmacupsampler_srstorage_load_stb $end
$var wire 1 j hbfmacupsampler_hbfmacupsampler_srstorage_load_ack $end
$var wire 1 k hbfmacupsampler_hbfmacupsampler_srstorage_load_eop $end
$var wire 24 l hbfmacupsampler_hbfmacupsampler_srstorage_load_payload_data $end
$var wire 1 m hbfmacupsampler_hbfmacupsampler_srstorage_out_stb $end
$var wire 1 n hbfmacupsampler_hbfmacupsampler_srstorage_out_ack $end
$var wire 1 o hbfmacupsampler_hbfmacupsampler_srstorage_out_eop $end
$var wire 24 p hbfmacupsampler_hbfmacupsampler_srstorage_out_payload_data $end
$var wire 24 q hbfmacupsampler_hbfmacupsampler_srstorage0 $end
$var wire 24 r hbfmacupsampler_hbfmacupsampler_srstorage1 $end
$var wire 24 s hbfmacupsampler_hbfmacupsampler_srstorage2 $end
$var wire 24 t hbfmacupsampler_hbfmacupsampler_srstorage3 $end
$var wire 24 u hbfmacupsampler_hbfmacupsampler_srstorage4 $end
$var wire 24 v hbfmacupsampler_hbfmacupsampler_srstorage5 $end
$var wire 24 w hbfmacupsampler_hbfmacupsampler_srstorage6 $end
$var wire 24 x hbfmacupsampler_hbfmacupsampler_srstorage7 $end
$var wire 24 y hbfmacupsampler_hbfmacupsampler_srstorage8 $end
$var wire 24 z hbfmacupsampler_hbfmacupsampler_srstorage9 $end
$var wire 10 { hbfmacupsampler_hbfmacupsampler_srstorage_q $end
$var wire 24 | hbfmacupsampler_hbfmacupsampler_srstorage_buf $end
$var wire 1 } hbfmacupsampler_input_stb $end
$var wire 1 ~ hbfmacupsampler_input_ack $end
$var wire 24 "! hbfmacupsampler_input_payload_data $end
$var wire 1 "" hbfmacupsampler_output_output_stb $end
$var wire 1 "# hbfmacupsampler_output_output_ack $end
$var wire 1 "$ hbfmacupsampler_output_output_last $end
$var wire 1 "% hbfmacupsampler_output_output_eop $end
$var wire 24 "& hbfmacupsampler_output_output_payload_data $end
$var wire 1 "' hbfmacupsampler_inter $end
$var wire 24 "( hbfmacupsampler0 $end
$var wire 24 ") hbfmacupsampler1 $end
$var wire 3 "* hbfmacupsampler_buf_stb $end
$var wire 1 "+ sys_clk $end
$enddefinitions $end
$dumpvars
$end
#0
b000000000000000000000000 !
0"
b000000000000000000000000 #
1$
b000000000000000000 %
0&
b000000000000000000 '
1(
b000000000000000000 )
1*
b000000000000000000000000000000000000000000000000 +
b000000000000000000000000 ,
0-
b000000000000000000000000 .
1/
b0000000000000000000000000 0
01
b0000000000000000000000000 2
13
b000000000000000000000000000000000000000000000000 4
05
b000000000000000000000000000000000000000000000000 6
17
b000000000000000000000000000000000000000000000000 8
09
b000000000000000000000000000000000000000000000000 :
1;
0<
0=
0>
0?
0@
0A
0B
b000000000000000000 C
b111111111111010100 D
b000000000000101000 E
b111111111111011100 F
b000000000000100000 G
b111111111111100100 H
b000000000000011000 I
b111111111111101100 J
b000000000000010000 K
b111111111111110100 L
b000000000000001000 M
b0000000001 N
0O
0P
0Q
b000000000000000000000000 R
0S
0T
0U
b000000000000000000000000 V
b000000000000000000000000 W
b000000000000000000000000 X
b000000000000000000000000 Y
b000000000000000000000000 Z
b000000000000000000000000 [
b000000000000000000000000 \
b000000000000000000000000 ]
b000000000000000000000000 ^
b000000000000000000000000 _
b0000000001 `
0a
0b
0c
0d
b000000000000000000000000000000000000000000000000 e
b000000000000000000000000000000000000000000000000 f
b0000 g
0h
0i
0j
0k
b000000000000000000000000 l
0m
0n
0o
b000000000000000000000000 p
b000000000000000000000000 q
b000000000000000000000000 r
b000000000000000000000000 s
b000000000000000000000000 t
b000000000000000000000000 u
b000000000000000000000000 v
b000000000000000000000000 w
b000000000000000000000000 x
b000000000000000000000000 y
b000000000000000000000000 z
b0000000001 {
b000000000000000000000000 |
0}
0~
b000000000000000000000000 "!
0""
0"#
0"$
0"%
b000000000000000000000000 "&
0"'
b000000000000000000000000 "(
b000000000000000000000000 ")
b000 "*
0"+
1Q
0$
b111111111111010100 %
0(
0*
0/
03
07
0;
1k
b111111111111010100 C
#5
1/
13
17
1;
1O
1P
1"+
1h
b000000000000000000000001 R
1S
1>
1T
1?
1i
1$
1j
1@
1}
1A
1(
1~
1m
1*
1n
b000000000000000000000001 "!
#10
0"+
#15
b000000000000011000 H
b111111111111101100 I
b000000000000010000 J
b111111111111110100 K
b000000000000001000 L
b111111111111010100 M
b0000000010 N
b0000000010 {
0P
b000000000000000000000010 R
b000000000000101000 %
b111111111111010100 '
0~
b000000000000000000000010 "!
1"#
b000000000000000000000001 _
b0000000010 `
b001 "*
1"+
0?
0j
b000000000000101000 C
b000000000000101000 D
b111111111111011100 E
b000000000000100000 F
b111111111111100100 G
#20
0"+
#25
b111111111111101100 H
b0000000100 `
b000000000000010000 I
b111111111111110100 J
b000000000000001000 K
b111111111111010100 L
b010 "*
b000000000000101000 M
b0000000100 N
b0000000100 {
b111111111111100100 F
1"+
b000000000000011000 G
b111111111111011100 %
b000000000000101000 '
b111111111111010100 )
b111111111111011100 C
b111111111111011100 D
b000000000000100000 E
b000000000000000000000001 ^
b000000000000000000000000 _
#30
0"+
#35
b000000000000010000 H
b0000001000 `
b111111111111110100 I
b000000000000001000 J
b111111111111010100 K
b000000000000101000 L
b111111111111011100 M
b0000001000 N
b0000001000 {
b111111111111100100 E
b000000000000011000 F
1"+
b000000000000100000 %
b111111111111011100 '
b000000000000101000 )
b000000000000100000 C
b000000000000100000 D
b000000000000000000000001 ]
b000000000000000000000000 ^
b111111111111101100 G
#40
0"+
#45
b111111111111110100 H
b0000010000 `
b000000000000001000 I
b111111111111010100 J
b000000000000101000 K
b111111111111011100 L
b111111111111100100 D
b000000000000100000 M
b0000010000 N
b0000010000 {
b000000000000011000 E
1"+
b111111111111100100 %
b000000000000100000 '
b111111111111011100 )
b111111111111100100 C
b000000000000000000000001 \
b000000000000000000000000 ]
b111111111111101100 F
b000000000000010000 G
#50
0"+
#55
b000000000000001000 H
b0000100000 `
b111111111111010100 I
b000000000000101000 J
b111111111111011100 K
b000000000000100000 L
b000000000000011000 D
b111111111111100100 M
b0000100000 N
b0000100000 {
1"+
b000000000000011000 %
b111111111111100100 '
b000000000000100000 )
b000000000000000000000001 [
b000000000000011000 C
b000000000000000000000000 \
b111111111111101100 E
b000000000000010000 F
b111111111111110100 G
#60
0"+
#65
b111111111111010100 H
b0001000000 `
b000000000000101000 I
b111111111111011100 J
b000000000000100000 K
b111111111111100100 L
b000000000000011000 M
b0001000000 N
b0001000000 {
1"+
b111111111111101100 %
b000000000000011000 '
b111111111111100100 )
b000000000000000000000001 Z
b000000000000000000000000 [
b111111111111101100 C
b111111111111101100 D
b000000000000010000 E
b111111111111110100 F
b000000000000001000 G
#70
0"+
#75
b000000000000101000 H
b0010000000 `
b111111111111011100 I
b000000000000100000 J
b111111111111100100 K
b000000000000011000 L
b111111111111101100 M
b0010000000 N
b0010000000 {
1"+
b000000000000010000 %
b111111111111101100 '
b000000000000000000000001 Y
b000000000000011000 )
b000000000000000000000000 Z
b000000000000010000 C
b000000000000010000 D
b111111111111110100 E
b000000000000001000 F
b111111111111010100 G
#80
0"+
#85
b111111111111011100 H
b0100000000 `
b000000000000100000 I
b111111111111100100 J
b000000000000011000 K
b111111111111101100 L
b000000000000010000 M
b0100000000 N
b0100000000 {
1"+
b111111111111110100 %
b000000000000010000 '
b000000000000000000000001 X
b000000000000000000000000 Y
b111111111111101100 )
b111111111111110100 C
b111111111111110100 D
b000000000000001000 E
b111111111111010100 F
b000000000000101000 G
#90
0"+
#95
b000000000000100000 H
b1000000000 `
b111111111111100100 I
b000000000000011000 J
b111111111111101100 K
b000000000000010000 L
b111111111111110100 M
b1000000000 N
b1000000000 {
1"+
b000000000000000000000001 !
1U
b000000000000001000 %
b000000000000000000000001 V
b000000000000000000000001 W
b111111111111110100 '
b000000000000000000000000 X
b000000000000000000000001 l
b000000000000010000 )
1B
b000000000000001000 C
b000000000000001000 D
1o
b111111111111010100 E
b000000000000101000 F
b111111111111011100 G
#100
0"+
#105
b111111111111100100 H
b0000000001 `
b000000000000011000 I
b0000000000000000000000001 0
b111111111111101100 J
b000000000000010000 K
b111111111111110100 L
b000000000000001000 M
b0000000001 N
b0000000001 {
b0001 g
1"+
1P
b000000000000000000000000 !
b000000000000100000 G
b000000000000000000000001 #
1?
0U
1j
b000000000000000000000000 V
b111111111111010100 %
b000000000000000000000000 W
b000000000000001000 '
b000000000000000000000000 l
1~
b111111111111110100 )
0B
b111111111111010100 C
b111111111111010100 D
0o
b000000000000101000 E
b111111111111011100 F
b000000000000000000000001 _
#110
0"+
#115
b000000000000011000 H
b0000000010 `
b111111111111101100 I
b0000000000000000000000000 0
b000000000000010000 J
b111111111111110100 K
b0000000000000000000000001 2
b000000000000001000 L
b011 "*
b111111111111010100 M
b000000000000000000000000000000000000000000001000 4
b0000000010 N
b0000000010 {
b0010 g
1"+
b000000000000100000 F
0P
b000000000000000000000011 R
b111111111111100100 G
b000000000000000000000000 #
0?
0j
b000000000000101000 %
b111111111111010100 '
0~
b000000000000001000 )
b000000000000101000 C
b000000000000000000000011 "!
b000000000000101000 D
b111111111111011100 E
b000000000000000000000001 ^
b000000000000000000000010 _
#120
0"+
#125
b111111111111101100 H
b0000000100 `
b000000000000010000 I
b111111111111110100 J
b000000000000001000 K
b0000000000000000000000000 2
b111111111111010100 L
b110 "*
b000000000000101000 M
b000000000000000000000000000000000000000000000000 4
b0000000100 N
b000000000000000000000000000000000000000000001000 6
b0000000100 {
b000000000000100000 E
b000000000000000000000000000000000000000000001000 8
b0100 g
1"+
b111111111111100100 F
b000000000000011000 G
b111111111111011100 %
b000000000000101000 '
b111111111111010100 )
b111111111111011100 C
b111111111111011100 D
1""
b000000000000000000000001 ]
b000000000000000000000010 ^
b000000000000000000000000 _
#130
0"+
#135
b000000000000010000 H
b0000001000 `
b111111111111110100 I
1"'
b000000000000001000 J
b000000000000000000001000 "&
b111111111111010100 K
b000000000000101000 L
b010 "*
b111111111111011100 M
b000000000000100000 D
b0000001000 N
b000000000000000000000000000000000000000000000000 6
1a
b0000001000 {
b111111111111100100 E
1b
b000000000000000000000000000000000000000000000000 8
b000000000000000000000000000000000000000000001000 :
b000000000000000000000000000000000000000000001000 e
b1000 g
1"+
b000000000000011000 F
b000000000000100000 %
b111111111111011100 '
b000000000000101000 )
b000000000000100000 C
b000000000000000000000001 \
b000000000000000000000010 ]
b000000000000000000000000 ^
b111111111111101100 G
1"%
#140
0"+
#145
b111111111111110100 H
b0000010000 `
b000000000000001000 I
0"'
b111111111111010100 J
b000000000000000000000000 "&
b000000000000101000 K
b111111111111011100 L
b111111111111100100 D
b000000000000100000 M
b0000010000 N
0a
b0000010000 {
b000000000000011000 E
0b
b000000000000000000000000000000000000000000000000 :
b000000000000000000000000000000000000000000000000 e
b0000 g
1"+
b111111111111100100 %
b000000000000100000 '
b111111111111011100 )
b000000000000000000000001 [
b111111111111100100 C
b000000000000000000000010 \
0""
b000000000000000000000000 ]
b111111111111101100 F
b000000000000010000 G
0"%
#150
0"+
#155
b000000000000001000 H
b0000100000 `
b111111111111010100 I
b000000000000101000 J
b111111111111011100 K
b000000000000100000 L
b000000000000011000 D
b111111111111100100 M
b0000100000 N
b0000100000 {
1"+
b000000000000011000 %
b111111111111100100 '
b000000000000100000 )
b000000000000000000000001 Z
b000000000000000000000010 [
b000000000000011000 C
b000000000000000000000000 \
b111111111111101100 E
b000000000000010000 F
b111111111111110100 G
#160
0"+
#165
b111111111111010100 H
b0001000000 `
b000000000000101000 I
b111111111111011100 J
b000000000000100000 K
b111111111111100100 L
b000000000000011000 M
b0001000000 N
b0001000000 {
1"+
b111111111111101100 %
b000000000000011000 '
b000000000000000000000001 Y
b111111111111100100 )
b000000000000000000000010 Z
b000000000000000000000000 [
b111111111111101100 C
b111111111111101100 D
b000000000000010000 E
b111111111111110100 F
b000000000000001000 G
#170
0"+
#175
b000000000000101000 H
b0010000000 `
b111111111111011100 I
b000000000000100000 J
b111111111111100100 K
b000000000000011000 L
b111111111111101100 M
b0010000000 N
b0010000000 {
1"+
b000000000000010000 %
b111111111111101100 '
b000000000000000000000001 X
b000000000000000000000010 Y
b000000000000011000 )
b000000000000000000000000 Z
b000000000000010000 C
b000000000000010000 D
b111111111111110100 E
b000000000000001000 F
b111111111111010100 G
#180
0"+
#185
b111111111111011100 H
b0100000000 `
b000000000000100000 I
b111111111111100100 J
b000000000000011000 K
b111111111111101100 L
b000000000000010000 M
b0100000000 N
b0100000000 {
1"+
b000000000000000000000001 !
b111111111111110100 %
b000000000000000000000001 V
b000000000000000000000001 W
b000000000000010000 '
b000000000000000000000010 X
b000000000000000000000001 l
b000000000000000000000000 Y
b111111111111101100 )
b111111111111110100 C
b111111111111110100 D
b000000000000001000 E
b111111111111010100 F
b000000000000101000 G
#190
0"+
#195
b000000000000100000 H
b1000000000 `
b111111111111100100 I
b0000000000000000000000001 0
b000000000000011000 J
b111111111111101100 K
b000000000000010000 L
b111111111111110100 M
b1000000000 N
b1000000000 {
1"+
b000000000000000000000010 !
b111111111111011100 G
b000000000000000000000001 #
1U
b000000000000001000 %
b000000000000000000000010 V
b000000000000000000000010 W
b111111111111110100 '
b000000000000000000000000 X
b000000000000000000000010 l
b000000000000010000 )
1B
b000000000000001000 C
b000000000000001000 D
1o
b111111111111010100 E
b000000000000101000 F
b000000000000000000000001 _
#200
0"+
#205
b111111111111100100 H
b0000000001 `
b000000000000011000 I
b0000000000000000000000010 0
b111111111111101100 J
b000000000000010000 K
b0000000000000000000000001 2
b111111111111110100 L
b000000000000001000 M
b111111111111111111111111111111111111111111110100 4
b0000000001 N
b0000000001 {
b0001 g
1"+
b111111111111011100 F
1P
b000000000000000000000000 !
b000000000000100000 G
b000000000000000000000010 #
1?
0U
1j
b000000000000000000000000 V
b111111111111010100 %
b000000000000000000000000 W
b000000000000001000 '
b000000000000000000000000 l
1~
b111111111111110100 )
0B
b111111111111010100 C
b111111111111010100 D
0o
b000000000000101000 E
b000000000000000000000001 ^
b000000000000000000000010 _
#210
0"+
#215
b000000000000011000 H
b0000000010 `
b111111111111101100 I
b0000000000000000000000000 0
b000000000000010000 J
b111111111111110100 K
b0000000000000000000000010 2
b000000000000001000 L
b011 "*
b111111111111010100 M
b000000000000000000000000000000000000000000010000 4
b0000000010 N
b111111111111111111111111111111111111111111110100 6
b0000000010 {
b111111111111011100 E
b111111111111111111111111111111111111111111110100 8
b0010 g
1"+
b000000000000100000 F
0P
b000000000000000000000100 R
b111111111111100100 G
b000000000000000000000000 #
0?
0j
b000000000000101000 %
b111111111111010100 '
0~
b000000000000001000 )
b000000000000101000 C
b000000000000000000000100 "!
b000000000000101000 D
b000000000000000000000001 ]
b000000000000000000000010 ^
b000000000000000000000011 _
#220
0"+
#225
b111111111111101100 H
b0000000100 `
b000000000000010000 I
b111111111111110100 J
b000000000000001000 K
b0000000000000000000000000 2
b111111111111010100 L
b110 "*
b000000000000101000 M
b111111111111011100 D
b0000000100 N
b000000000000000000000000000000000000000000000000 4
b000000000000000000000000000000000000000000010000 6
b0000000100 {
b000000000000100000 E
b000000000000000000000000000000000000000000000100 8
b111111111111111111111111111111111111111111110100 :
b111111111111111111111111111111111111111111110100 e
b0100 g
1"+
b111111111111100100 F
b000000000000011000 G
b111111111111011100 %
b000000000000101000 '
b111111111111010100 )
b111111111111011100 C
b111111111111111111111111111111111111111111110100 +
b000000000000000000000001 \
1""
b000000000000000000000010 ]
b000000000000000000000011 ^
b000000000000000000000000 _
#230
0"+
#235
b000000000000010000 H
b111111111111110100 I
b000000000000001000 J
b111111111111010100 K
b000000000000101000 L
b111111111111011100 M
b0000001000 N
b0000001000 {
b000000000000100000 %
b111111111111011100 '
b000000000000101000 )
b000000000000000000000001 [
b000000000000000000000000000000000000000000000000 +
b000000000000000000000010 \
b000000000000000000000011 ]
b000000000000000000000000 ^
1"%
b0000001000 `
b000000000000000000000100 "&
1"'
b010 "*
b000000000000000000000000000000000000000000000000 6
1a
1b
b000000000000000000000000000000000000000000000000 8
b000000000000000000000000000000000000000000000100 :
b000000000000000000000000000000000000000000000100 e
b1000 g
1"+
b000000000000100000 C
b000000000000100000 D
b111111111111100100 E
b000000000000011000 F
b111111111111101100 G
#240
0"+
#245
b111111111111110100 H
b0000010000 `
b000000000000001000 I
0"'
b111111111111010100 J
b000000000000000000000000 "&
b000000000000101000 K
b111111111111011100 L
b111111111111100100 D
b000000000000100000 M
b0000010000 N
0a
b0000010000 {
b000000000000011000 E
0b
b000000000000000000000000000000000000000000000000 :
b000000000000000000000000000000000000000000000000 e
b0000 g
1"+
b111111111111100100 %
b000000000000100000 '
b111111111111011100 )
b000000000000000000000001 Z
b000000000000000000000010 [
b111111111111100100 C
b000000000000000000000011 \
0""
b000000000000000000000000 ]
b111111111111101100 F
b000000000000010000 G
0"%
#250
0"+
#255
b000000000000001000 H
b0000100000 `
b111111111111010100 I
b000000000000101000 J
b111111111111011100 K
b000000000000100000 L
b000000000000011000 D
b111111111111100100 M
b0000100000 N
b0000100000 {
1"+
b000000000000011000 %
b111111111111100100 '
b000000000000000000000001 Y
b000000000000100000 )
b000000000000000000000010 Z
b000000000000000000000011 [
b000000000000011000 C
b000000000000000000000000 \
b111111111111101100 E
b000000000000010000 F
b111111111111110100 G
#260
0"+
#265
b111111111111010100 H
b0001000000 `
b000000000000101000 I
b111111111111011100 J
b000000000000100000 K
b111111111111100100 L
b000000000000011000 M
b0001000000 N
b0001000000 {
1"+
b111111111111101100 %
b000000000000011000 '
b000000000000000000000001 X
b000000000000000000000010 Y
b111111111111100100 )
b000000000000000000000011 Z
b000000000000000000000000 [
b111111111111101100 C
b111111111111101100 D
b000000000000010000 E
b111111111111110100 F
b000000000000001000 G
#270
0"+
#275
b000000000000101000 H
b0010000000 `
b111111111111011100 I
b000000000000100000 J
b111111111111100100 K
b000000000000011000 L
b111111111111101100 M
b0010000000 N
b0010000000 {
1"+
b000000000000000000000001 !
b000000000000010000 %
b000000000000000000000001 V
b000000000000000000000001 W
b111111111111101100 '
b000000000000000000000010 X
b000000000000000000000001 l
b000000000000000000000011 Y
b000000000000011000 )
b000000000000000000000000 Z
b000000000000010000 C
b000000000000010000 D
b111111111111110100 E
b000000000000001000 F
b111111111111010100 G
#280
0"+
#285
b111111111111011100 H
b0100000000 `
b000000000000100000 I
b0000000000000000000000001 0
b111111111111100100 J
b000000000000011000 K
b111111111111101100 L
b000000000000010000 M
b0100000000 N
b0100000000 {
1"+
b000000000000000000000010 !
b000000000000101000 G
b000000000000000000000001 #
b111111111111110100 %
b000000000000000000000010 V
b000000000000000000000010 W
b000000000000010000 '
b000000000000000000000011 X
b000000000000000000000010 l
b000000000000000000000000 Y
b111111111111101100 )
b111111111111110100 C
b111111111111110100 D
b000000000000001000 E
b111111111111010100 F
b000000000000000000000001 _
#290
0"+
#295
b000000000000100000 H
b1000000000 `
b111111111111100100 I
b0000000000000000000000010 0
b000000000000011000 J
b111111111111101100 K
b0000000000000000000000001 2
b000000000000010000 L
b111111111111110100 M
b000000000000000000000000000000000000000000010000 4
b1000000000 N
b1000000000 {
b000000000000101000 F
1"+
b000000000000000000000011 !
b111111111111011100 G
b000000000000000000000010 #
1U
b000000000000001000 %
b000000000000000000000011 V
b000000000000000000000011 W
b111111111111110100 '
b000000000000000000000000 X
b000000000000000000000011 l
b000000000000010000 )
1B
b000000000000001000 C
b000000000000001000 D
1o
b111111111111010100 E
b000000000000000000000001 ^
b000000000000000000000010 _
#300
0"+
#305
b111111111111100100 H
b000000000000011000 I
b111111111111101100 J
b000000000000010000 K
b111111111111110100 L
b000000000000001000 M
b0000000001 N
b0000000001 {
1P
b000000000000000000000000 !
b000000000000000000000011 #
0U
b111111111111010100 %
b000000000000000000000000 V
b000000000000000000000000 W
b000000000000001000 '
1~
b111111111111110100 )
b000000000000000000000001 ]
b000000000000000000000010 ^
b000000000000000000000011 _
b0000000001 `
b0000000000000000000000011 0
b0000000000000000000000010 2
b111111111111111111111111111111111111111111101000 4
b000000000000000000000000000000000000000000010000 6
b000000000000000000000000000000000000000000010000 8
b0001 g
1"+
1?
1j
b000000000000000000000000 l
0B
b111111111111010100 C
b111111111111010100 D
0o
b000000000000101000 E
b111111111111011100 F
b000000000000100000 G
#310
0"+
#315
b000000000000011000 H
b111111111111101100 I
b000000000000010000 J
b111111111111110100 K
b000000000000001000 L
b111111111111010100 M
b0000000010 N
b0000000010 {
0P
b000000000000000000000101 R
b000000000000000000000000 #
b000000000000101000 %
b111111111111010100 '
0~
b000000000000001000 )
b000000000000000000000000000000000000000000010000 +
b000000000000000000000101 "!
b000000000000000000000001 \
b000000000000000000000010 ]
b000000000000000000000011 ^
b000000000000000000000100 _
b0000000010 `
b0000000000000000000000000 0
b0000000000000000000000011 2
b011 "*
b000000000000000000000000000000000000000000011000 4
b111111111111111111111111111111111111111111101000 6
b111111111111111111111111111111111111111111111000 8
b000000000000000000000000000000000000000000010000 :
b000000000000000000000000000000000000000000010000 e
b0010 g
1"+
0?
0j
b000000000000101000 C
b000000000000101000 D
b111111111111011100 E
b000000000000100000 F
b111111111111100100 G
#320
0"+
#325
b111111111111101100 H
b0000000100 `
b000000000000010000 I
b111111111111111111111111111111111111111111111000 +
b111111111111110100 J
b000000000000001000 K
b0000000000000000000000000 2
b111111111111010100 L
b110 "*
b000000000000101000 M
b111111111111011100 D
b0000000100 N
b000000000000000000000000000000000000000000000000 4
b000000000000000000000000000000000000000000011000 6
b0000000100 {
b000000000000100000 E
b000000000000000000000000000000000000000000010000 8
b111111111111111111111111111111111111111111111000 :
b111111111111111111111111111111111111111111111000 e
b0100 g
1"+
b111111111111100100 F
b000000000000011000 G
b111111111111011100 %
b000000000000101000 '
b111111111111010100 )
b000000000000000000000001 [
b111111111111011100 C
b000000000000000000000010 \
1""
b000000000000000000000011 ]
b000000000000000000000100 ^
b000000000000000000000000 _
#330
0"+
#335
b000000000000010000 H
b111111111111110100 I
b000000000000001000 J
b111111111111010100 K
b000000000000101000 L
b111111111111011100 M
b0000001000 N
b0000001000 {
b000000000000100000 %
b111111111111011100 '
b000000000000101000 )
b000000000000000000000001 Z
b000000000000000000000010 [
b000000000000000000000000000000000000000000000000 +
b000000000000000000000011 \
b000000000000000000000100 ]
b000000000000000000000000 ^
1"%
b0000001000 `
b000000000000000000010000 "&
1"'
b010 "*
b000000000000000000000000000000000000000000000000 6
1a
1b
b000000000000000000000000000000000000000000000000 8
b000000000000000000000000000000000000000000010000 :
b000000000000000000000000000000000000000000010000 e
b1000 g
1"+
b000000000000100000 C
b000000000000100000 D
b111111111111100100 E
b000000000000011000 F
b111111111111101100 G
#340
0"+
#345
b111111111111110100 H
b0000010000 `
b000000000000001000 I
0"'
b111111111111010100 J
b000000000000000000000000 "&
b000000000000101000 K
b111111111111011100 L
b111111111111100100 D
b000000000000100000 M
b0000010000 N
0a
b0000010000 {
b000000000000011000 E
0b
b000000000000000000000000000000000000000000000000 :
b000000000000000000000000000000000000000000000000 e
b0000 g
1"+
b111111111111100100 %
b000000000000100000 '
b000000000000000000000001 Y
b111111111111011100 )
b000000000000000000000010 Z
b000000000000000000000011 [
b111111111111100100 C
b000000000000000000000100 \
0""
b000000000000000000000000 ]
b111111111111101100 F
b000000000000010000 G
0"%
#350
0"+
#355
b000000000000001000 H
b0000100000 `
b111111111111010100 I
b000000000000101000 J
b111111111111011100 K
b000000000000100000 L
b000000000000011000 D
b111111111111100100 M
b0000100000 N
b0000100000 {
1"+
b000000000000011000 %
b111111111111100100 '
b000000000000000000000001 X
b000000000000000000000010 Y
b000000000000100000 )
b000000000000000000000011 Z
b000000000000000000000100 [
b000000000000011000 C
b000000000000000000000000 \
b111111111111101100 E
b000000000000010000 F
b111111111111110100 G
#360
0"+
