iir.vcd
$scope module IIR $end
$var wire 1 ! iir_record0_profile $end
$var wire 1 " iir_record0_en_out $end
$var wire 1 # iir_record0_en_iir $end
$var wire 1 $ iir_record0_clip $end
$var wire 1 % iir_record0_stb $end
$var wire 1 & iir_record1_profile $end
$var wire 1 ' iir_record1_en_out $end
$var wire 1 ( iir_record1_en_iir $end
$var wire 1 ) iir_record1_clip $end
$var wire 1 * iir_record1_stb $end
$var wire 1 + iir_record2_profile $end
$var wire 1 , iir_record2_en_out $end
$var wire 1 - iir_record2_en_iir $end
$var wire 1 . iir_record2_clip $end
$var wire 1 / iir_record2_stb $end
$var wire 1 0 iir_record3_profile $end
$var wire 1 1 iir_record3_en_out $end
$var wire 1 2 iir_record3_en_iir $end
$var wire 1 3 iir_record3_clip $end
$var wire 1 4 iir_record3_stb $end
$var wire 16 5 iir_adc0 $end
$var wire 16 6 iir_adc1 $end
$var wire 16 7 iir_adc2 $end
$var wire 16 8 iir_adc3 $end
$var wire 64 9 iir_dds0 $end
$var wire 64 : iir_dds1 $end
$var wire 64 ; iir_dds2 $end
$var wire 64 < iir_dds3 $end
$var wire 1 = iir_start $end
$var wire 1 > iir_loading $end
$var wire 1 ? iir_processing $end
$var wire 1 @ iir_shifting $end
$var wire 1 A iir_done $end
$var wire 4 B iir_t_current_step $end
$var wire 1 C iir_t_current_step_clr $end
$var wire 3 D iir_stages_active $end
$var wire 2 E iir_pipeline_phase $end
$var wire 2 F iir_channel0 $end
$var wire 2 G iir_channel1 $end
$var wire 2 H iir_channel2 $end
$var wire 1 I iir_profile0 $end
$var wire 1 J iir_profile1 $end
$var wire 5 K iir_m_coeff_adr $end
$var wire 32 L iir_m_coeff_dat_r $end
$var wire 4 M iir_m_state_adr $end
$var wire 17 N iir_m_state_dat_r $end
$var wire 1 O iir_m_state_we $end
$var wire 17 P iir_m_state_dat_w $end
$var wire 17 Q iir_state $end
$var wire 17 R iir_offset $end
$var wire 16 S iir_coeff $end
$var wire 17 T iir_output $end
$var wire 1 U iir_accu_clr $end
$var wire 1 V iir_offset_load $end
$var wire 1 W iir_clip $end
$var wire 17 X iir_a $end
$var wire 17 Y iir_d $end
$var wire 17 Z iir_ad $end
$var wire 16 [ iir_b $end
$var wire 48 \ iir_m $end
$var wire 48 ] iir_p $end
$var wire 1 ^ iir_offset_clr $end
$var wire 2 _ iir_sel_profile $end
$var wire 8 ` iir_dly_profile $end
$var wire 2 a iir_sel $end
$var wire 2 b iir_en $end
$var wire 8 c iir0 $end
$var wire 8 d iir1 $end
$var wire 8 e iir2 $end
$var wire 8 f iir3 $end
$var wire 8 g iir_dly $end
$var wire 1 h iir_en_out $end
$var wire 1 i iir_en_iir $end
$var wire 56 j state $end
$var wire 72 k next_state $end
$var wire 1 l next_value $end
$var wire 1 m next_value_ce $end
$var wire 32 n m_coeff_data_0 $end
$var wire 32 o m_coeff_data_1 $end
$var wire 32 p m_coeff_data_2 $end
$var wire 32 q m_coeff_data_3 $end
$var wire 32 r m_coeff_data_4 $end
$var wire 32 s m_coeff_data_5 $end
$var wire 32 t m_coeff_data_6 $end
$var wire 32 u m_coeff_data_7 $end
$var wire 32 v m_coeff_data_8 $end
$var wire 32 w m_coeff_data_9 $end
$var wire 32 x m_coeff_data_10 $end
$var wire 32 y m_coeff_data_11 $end
$var wire 32 z m_coeff_data_12 $end
$var wire 32 { m_coeff_data_13 $end
$var wire 32 | m_coeff_data_14 $end
$var wire 32 } m_coeff_data_15 $end
$var wire 32 ~ m_coeff_data_16 $end
$var wire 32 "! m_coeff_data_17 $end
$var wire 32 "" m_coeff_data_18 $end
$var wire 32 "# m_coeff_data_19 $end
$var wire 32 "$ m_coeff_data_20 $end
$var wire 32 "% m_coeff_data_21 $end
$var wire 32 "& m_coeff_data_22 $end
$var wire 32 "' m_coeff_data_23 $end
$var wire 32 "( m_coeff_data_24 $end
$var wire 32 ") m_coeff_data_25 $end
$var wire 32 "* m_coeff_data_26 $end
$var wire 32 "+ m_coeff_data_27 $end
$var wire 32 ", m_coeff_data_28 $end
$var wire 32 "- m_coeff_data_29 $end
$var wire 32 ". m_coeff_data_30 $end
$var wire 32 "/ m_coeff_data_31 $end
$var wire 5 "0 adr_reg0 $end
$var wire 17 "1 m_state_data_0 $end
$var wire 17 "2 m_state_data_1 $end
$var wire 17 "3 m_state_data_2 $end
$var wire 17 "4 m_state_data_3 $end
$var wire 17 "5 m_state_data_4 $end
$var wire 17 "6 m_state_data_5 $end
$var wire 17 "7 m_state_data_6 $end
$var wire 17 "8 m_state_data_7 $end
$var wire 17 "9 m_state_data_8 $end
$var wire 17 ": m_state_data_9 $end
$var wire 17 "; m_state_data_10 $end
$var wire 17 "< m_state_data_11 $end
$var wire 17 "= m_state_data_12 $end
$var wire 17 "> m_state_data_13 $end
$var wire 17 "? m_state_data_14 $end
$var wire 17 "@ m_state_data_15 $end
$var wire 4 "A adr_reg1 $end
$var wire 1 "B sys_clk $end
$enddefinitions $end
$dumpvars
$end
#0
0!
0"
0#
0$
0%
0&
0'
0(
0)
0*
0+
0,
0-
0.
0/
00
01
02
03
04
b0000000000000000 5
b0000000000000000 6
b0000000000000000 7
b0000000000000000 8
b0000000000000000000000000000000000000000000000000000000000000000 9
b0000000000000000000000000000000000000000000000000000000000000000 :
b0000000000000000000000000000000000000000000000000000000000000000 ;
b0000000000000000000000000000000000000000000000000000000000000000 <
0=
0>
0?
0@
0A
b0000 B
0C
b000 D
b00 E
b00 F
b00 G
b00 H
0I
0J
b00000 K
b00000000000000000000000000000000 L
b0000 M
b00000000000000000 N
0O
b00000000000000000 P
b00000000000000000 Q
b00000000000000000 R
b0000000000000000 S
b00000000000000000 T
0U
0V
0W
b00000000000000000 X
b00000000000000000 Y
b00000000000000000 Z
b0000000000000000 [
b000000000000000000000000000000000000000000000000 \
b000000000000000000000000000000000000000000000000 ]
0^
b00 _
b00000000 `
b00 a
b00 b
b00000000 c
b00000000 d
b00000000 e
b00000000 f
b00000000 g
0h
0i
b01001001010001000100110001000101 j
b001100000011101001001001010001000100110001000101 k
0l
0m
b00000000000000000000000000000000 n
b00000000000000000000000000000000 o
b00000000000000000000000000000000 p
b00000000000000000000000000000000 q
b00000000000000000000000000000000 r
b00000000000000000000000000000000 s
b00000000000000000000000000000000 t
b00000000000000000000000000000000 u
b00000000000000000000000000000000 v
b00000000000000000000000000000000 w
b00000000000000000000000000000000 x
b00000000000000000000000000000000 y
b00000000000000000000000000000000 z
b00000000000000000000000000000000 {
b00000000000000000000000000000000 |
b00000000000000000000000000000000 }
b00000000000000000000000000000000 ~
b00000000000000000000000000000000 "!
b00000000000000000000000000000000 ""
b00000000000000000000000000000000 "#
b00000000000000000000000000000000 "$
b00000000000000000000000000000000 "%
b00000000000000000000000000000000 "&
b00000000000000000000000000000000 "'
b00000000000000000000000000000000 "(
b00000000000000000000000000000000 ")
b00000000000000000000000000000000 "*
b00000000000000000000000000000000 "+
b00000000000000000000000000000000 ",
b00000000000000000000000000000000 "-
b00000000000000000000000000000000 ".
b00000000000000000000000000000000 "/
b00000 "0
b00000000000000000 "1
b00000000000000000 "2
b00000000000000000 "3
b00000000000000000 "4
b00000000000000000 "5
b00000000000000000 "6
b00000000000000000 "7
b00000000000000000 "8
b00000000000000000 "9
b00000000000000000 ":
b00000000000000000 ";
b00000000000000000 "<
b00000000000000000 "=
b00000000000000000 ">
b00000000000000000 "?
b00000000000000000 "@
b0000 "A
0"B
1A
1C
1U
#5
b00000000000000000001000000100000 y
b00000000000000000001000100110000 z
b00000000000000000001000100000000 {
b00000000000000000001000100010000 |
b00000000000000000001000100100000 }
b00000000000000000010000000110000 ~
b00000000000000000010000000000000 "!
b00000000000000000010000000010000 ""
b00000000000000000010000000100000 "#
b00000000000000000010000100110000 "$
b00000000000000000010000100000000 "%
b00000000000000000000000000110000 L
b00000000000000000010000100010000 "&
b00000000000000000010000100100000 "'
b00000000000000000011000000110000 "(
b00000000000000000011000000000000 ")
b00000000000000000011000000010000 "*
b00000000000000000011000000100000 "+
b00000000000000000011000100110000 ",
b00000000000000000011000100000000 "-
b00000000000110000 R
b00000000000000000011000100010000 ".
b00000000000000000011000100100000 "/
b00000000000000010 "2
b00000000100000000 "3
b00000000100000010 "4
b00000001000000000 "5
b00000001000000010 "6
b00000001100000000 "7
b00000001100000010 "8
b00000000100000000 ";
b00000000100000000 "<
b00000001000000000 "=
b00000001000000000 ">
b00000001100000000 "?
b00000001100000000 "@
1"B
1"
1#
1&
1'
1(
1,
1-
10
11
12
b0000000000000001 6
b0000000000000010 7
b0000000000000011 8
b00000000000000000000000000110000 n
b00000000000000000000000000010000 p
b00000000000000000000000000100000 q
b00000000000000000000000100110000 r
b00000000000000000000000100000000 s
b00000000000000000000000100010000 t
b00000000000000000000000100100000 u
b00000000000000000001000000110000 v
b00000000000000000001000000000000 w
b00000000000000000001000000010000 x
#10
0"B
#15
b00010000001000000001000000100000 y
b00010001001100000001000100110000 z
b00000001000000010001000100000000 {
b00010001000100000001000100010000 |
b00010001001000000001000100100000 }
b00100000001100000010000000110000 ~
b00000000000000100010000000000000 "!
b00100000000100000010000000010000 ""
b00100000001000000010000000100000 "#
b00100001001100000010000100110000 "$
b00000001000000100010000100000000 "%
b00000000001100000000000000110000 L
1h
b00100001000100000010000100010000 "&
1i
b00100001001000000010000100100000 "'
b00110000001100000011000000110000 "(
b00000000000000110011000000000000 ")
b00110000000100000011000000010000 "*
b00110000001000000011000000100000 "+
b00110001001100000011000100110000 ",
b00000001000000110011000100000000 "-
b00110001000100000011000100010000 ".
b0000000000110000 S
b00110001001000000011000100100000 "/
1"B
b00000000001100000000000000110000 n
b00000000000100000000000000010000 p
b00000000001000000000000000100000 q
b00000001001100000000000100110000 r
b00000001000000000000000100000000 s
b00000001000100000000000100010000 t
b00000001001000000000000100100000 u
b00010000001100000001000000110000 v
b00000000000000010001000000000000 w
b00010000000100000001000000010000 x
#20
0"B
#25
b0000000000110000 [
1=
1"B
b001100010011101001001100010011110100000101000100 k
#30
0"B
#35
0A
1"B
b01001100010011110100000101000100 j
0C
0=
b1000 M
1>
1O
#40
0"B
#45
b00000000000000001 P
1"B
b0001 B
b00001 K
b01 E
b1010 M
0U
b1000 "A
#50
0"B
#55
b00000000000000010 P
b00000000000000001 ";
b0010 B
b00000000000000001 Q
b00000000000000000 R
b0000000000000000 S
1^
b00001 "0
b1010 "A
1V
1"B
b00010 K
b00000000000000000000000000000000 L
b10 E
b1100 M
b00000000000000001 N
#60
0"B
#65
b00000000000000010 "=
0^
b1100 "A
1"B
b00011 K
b001100100011101001010000010100100100111101000011010001010101001101010011 k
b00000000000100000000000000010000 L
1l
b1110 M
1m
b00000000000000010 N
b00000000000000011 P
b0011 B
1C
b00000000000000010 Q
b00000000000010000 R
b0000000000010000 S
b00010 "0
b00000000000000001 X
b0000000000000000 [
b11 E
#70
0"B
#75
b00000000000000011 "?
b1110 "A
1"B
b01010000010100100100111101000011010001010101001101010011 j
b00000 K
b00000000001000000000000000100000 L
0l
b0000 M
0m
0>
b00000000000000011 N
1?
0O
b00000000000000000 P
b0000 B
b00000000000000011 Q
0C
b00000000000100000 R
b001 D
b0000000000100000 S
b00011 "0
1U
0V
b00000000000000010 X
b00000000000010000 Y
b00000000000000001 Z
b0000000000010000 [
b00 E
#80
0"B
#85
b0001 B
b00000000000000000 Q
b00000000000110000 R
b0000000000110000 S
b01 E
b00000 "0
0U
b0000 "A
1"B
b00000000000000011 X
b00001 K
b00000000000010010 Z
b00000000001100000000000000110000 L
b0000000000100000 [
b000000000000000000000000000000000000000000010000 \
b00000000000000000 N
#90
0"B
#95
b0010 B
b00000000000000000 R
b0000000000000000 S
b10 E
b00001 "0
1^
1V
1"B
b00000000000000000 X
b00010 K
b00000000000010011 Z
b00000000000000000000000000000000 L
b0000000000110000 [
b000000000000000000000000000000000000001001000000 \
b1000 M
b000000000000000000000000000000000000000000010000 ]
#100
0"B
#105
b0011 B
b01 b
b00000000000010000 R
b0000000000010000 S
b11 E
b00010 "0
0^
b1000 "A
1"B
b00000000000000000 Y
b00011 K
b00000000000010000 Z
b00000000000100000000000000010000 L
b0000000000000000 [
b000000000000000000000000000000000000001110010000 \
b1001 M
b000000000000000000000000000000000000001001010000 ]
#110
0"B
#115
b1001 "A
1"B
b00000 K
b00000000001000000000000000100000 L
b0000 M
b000000000000000000000000000000000000000000000000 \
b0100 B
b000000000000000000000000000000000000010111100000 ]
b011 D
b00000000000100000 R
b0000000000100000 S
b00011 "0
1U
0V
b00000000000010000 Y
b00000000000000000 Z
b0000000000010000 [
b00 E
b01 F
#120
0"B
#125
b0101 B
b00000000000110000 R
b0000000000110000 S
b00000 "0
0U
1I
b0000 "A
b0000000000000000000000000000000000000000000000000000000000100000 9
1"B
b01101 K
b00000000000010000 Z
b00000000001100000000000000110000 L
b0000000000100000 [
b01 E
b0011 M
b000000000000000000000000000000000000000000000000 ]
#130
0"B
#135
1^
b0011 "A
b0000000000000000000000000000000000000000001100000000000000100000 9
1"B
b01110 K
b00000001000000010001000100000000 L
b1010 M
b000000000000000000000000000000000000001000000000 \
b00000000100000010 N
b01 _
b00000001 `
b0110 B
b00000000100000010 Q
b00000000000000000 R
b0000000100000001 S
b01101 "0
1V
b0000000000110000 [
b10 E
#140
0"B
#145
0^
b00000001 d
b1010 "A
1"B
b0000000000000000000100010000000000000000000000000000000000000000 :
b01111 K
b00010001000100000001000100010000 L
b1011 M
b00000000000000001 N
b000000000000000000000000000000000000001100000000 \
b00 _
b00010001 `
b01 a
b0111 B
b10 b
b00000000000000001 Q
b00001000100010000 R
b0001000100010000 S
b01110 "0
b00000000100000010 X
b00000000000000000 Y
b0000000100000001 [
b11 E
b000000000000000000000000000000000000001000000000 ]
#150
0"B
#155
b1011 "A
1"B
b01100 K
b00010001001000000001000100100000 L
b0000 M
b00000000100000000 N
b000000000000000000000000000000000001000000010000 \
1O
b1000 B
b00000000100000000 Q
b000000000000000000000000000000000000010100000000 ]
b111 D
b00001000100100000 R
b0001000100100000 S
b01111 "0
1U
0V
b00000000000000001 X
b00001000100010000 Y
b00000000100000010 Z
b0001000100010000 [
b00 E
b10 F
b01 G
#160
0"B
#165
0I
b0000 "A
1J
1"B
b0000000000000000000100010000000000000000000000000001000100100000 :
b10001 K
b00010001001100000001000100110000 L
b0100 M
b00000000000000000 N
b000000000000000000000000000100010011001000100000 \
0O
b1001 B
b00000000000000000 Q
b00001000100110000 R
b0001000100110000 S
b01100 "0
0U
b00000000100000000 X
b00001000100010001 Z
b0001000100100000 [
b01 E
b000000000000000000000000000000000000000000000000 ]
#170
0"B
#175
1^
b0100 "A
1"B
b0000000000000000000100010000000000010001001100000001000100100000 :
b10010 K
b00000000000000100010000000000000 L
b1100 M
b00000001000000000 N
b000000000000000000000001001001000100001100100000 \
b10 _
b00000001000100110 P
b00000000 `
b1010 B
b00000001000000000 Q
b00000000000000000 R
b0000000000000010 S
b00000001000100110 T
b10001 "0
1V
b00000000000000000 X
b00001001000010000 Z
b0001000100110000 [
b10 E
b000000000000000000000000000100010011001000100000 ]
#180
0"B
#185
0^
b1100 "A
1"B
b10011 K
b0000000000000000001000000000000000000000000000000000000000000000 ;
b00100000000100000010000000010000 L
b1101 M
b00000000000000010 N
b000000000000000000000001001101100111001100000000 \
b00 _
b00010011010101110 P
b00100000 `
b10 a
b1011 B
b01 b
b00000000000000010 Q
b00010000000010000 R
b0010000000010000 S
b00010011010101110 T
b10010 "0
b00000001000000000 X
b00000000000000000 Y
b00001000100010000 Z
b0000000000000010 [
b11 E
b000000000000000000000001001101010111010101000000 ]
#190
0"B
#195
b01 H
b1101 "A
1"B
b10000 K
b00100000001000000010000000100000 L
b0011 M
b00000001000000000 N
b000000000000000000000000000000000010001000100000 \
b00100110101111101 P
b1100 B
b00000001000000000 Q
b000000000000000000000010011010111110100001000000 ]
b00010000000100000 R
b0010000000100000 S
b00100110101111101 T
b10011 "0
1U
0V
b00000000000000010 X
b00010000000010000 Y
b00000001000000000 Z
b0010000000010000 [
b00 E
b11 F
b10 G
#200
0"B
#205
1I
b0011 "A
0J
1"B
b11101 K
b0000000000000000001000000000000000000000000000000010000000100000 ;
b00100000001100000010000000110000 L
b0111 M
b00000000100000010 N
b000000000000000000000000010000000010000000000000 \
b00000000000000000 P
b1101 B
b00000000100000010 Q
b00010000000110000 R
b0010000000110000 S
b00000000000000000 T
b10000 "0
0U
b00000001000000000 X
b00010000000010010 Z
b0010000000100000 [
b01 E
b000000000000000000000000000000000000000000000000 ]
#210
0"B
#215
1^
b0111 "A
1"B
b0000000001000000000100010000000000010001001100000001000100100000 :
b11110 K
b0000000000000000001000000000000000100000001100000010000000100000 ;
b00000001000000110011000100000000 L
b1110 M
b00000001100000010 N
b000000000000000000000100000001100100001001000000 \
b11 _
b00000100000000100 P
b00000001 `
b1110 B
b00000001100000010 Q
b00000000000000000 R
b0000000100000011 S
b00000100000000100 T
b11101 "0
1V
b00000000100000010 X
b00010001000010000 Z
b0010000000110000 [
b10 E
b000000000000000000000000010000000010000000000000 ]
#220
0"B
#225
0^
b1110 "A
b00000001 f
1"B
b11111 K
b00110001000100000011000100010000 L
b0000000000000000001100010000000000000000000000000000000000000000 <
b1111 M
b00000000000000011 N
b000000000000000000000100010010000110001100000000 \
b00 _
b01000100011001100 P
b00110001 `
b11 a
b1111 B
b10 b
b00000000000000011 Q
b00011000100010000 R
b0011000100010000 S
b01000100011001100 T
b11110 "0
b00000001100000010 X
b00000000000000000 Y
b00010000100010010 Z
b0000000100000011 [
b11 E
b000000000000000000000100010001100110001001000000 ]
#230
0"B
#235
b10 H
b1111 "A
1"B
b11100 K
b00110001001000000011000100100000 L
b00 E
b0100 M
b00000001100000000 N
1O
b01111111111111111 P
b0000 B
b00 F
b00000001100000000 Q
b00011000100100000 R
b110 D
b0011000100100000 S
b01111111111111111 T
b11111 "0
1U
0V
1W
b00000000000000011 X
b00011000100010000 Y
b00000001100000010 Z
b0011000100010000 [
b000000000000000000000000001000010111010100110110 \
b000000000000000000001000100011101100010101000000 ]
b11 G
#240
0"B
#245
0I
b0100 "A
1J
1"B
b00001 K
b00110001001100000011000100110000 L
b0000000000000000001100010000000000000000000000000011000100100000 <
b01 E
b0000 M
b01111111111111111 N
0O
b00000000000000000 P
b0001 B
b01111111111111111 Q
b00011000100110000 R
b0011000100110000 S
b00000000000000000 T
b11100 "0
0U
0W
b00000001100000000 X
b00011000100010011 Z
b01111111111111111 "5
b0011000100100000 [
b000000000000000000000000100100111001001000100000 \
1.
b000000000000000000000000000000000000000000000000 ]
#250
0"B
#255
1^
b0000 "A
1"B
b00010 K
b0011111111111111001000000000000000100000001100000010000000100000 ;
b00000000000000000000000000000000 L
b0000000000000000001100010000000000110001001100000011000100100000 <
b1000 M
b00000000000000000 N
b000000000000000000001001011010101100010101100000 \
b00001001001110010 P
b00000000 `
b0010 B
b00000000000000000 Q
b00000000000000000 R
b0000000000000000 S
b00001001001110010 T
b00001 "0
1V
b01111111111111111 X
b00011010000010000 Z
b0011000100110000 [
b10 E
b000000000000000000000000100100111001001000100000 ]
#260
0"B
#265
0^
b1000 "A
1"B
b00011 K
b00000000000100000000000000010000 L
b1001 M
b000000000000000000001010000000001101001100000000 \
b01111111111111111 P
b00 a
b0011 B
b00 b
b00000000000010000 R
b0000000000010000 S
b01111111111111111 T
b00010 "0
1W
b00000000000000000 X
b00000000000000000 Y
b10011000100001111 Z
b0000000000000000 [
b11 E
b000000000000000000001001111111100101011110000000 ]
#270
0"B
#275
b11 H
b1001 "A
1"B
b00000 K
b00000000001000000000000000100000 L
b0111 M
b000000000000000000000000000000000000000000000000 \
b0100 B
b000000000000000000010011111111110010101010000000 ]
b100 D
b00000000000100000 R
b0000000000100000 S
b00011 "0
1U
0V
b00000000000010000 Y
b00000000000000000 Z
b0000000000010000 [
b00 E
b01 F
b00 G
#280
0"B
#285
1I
b0111 "A
0J
1"B
b01101 K
b00000001 g
b00000000001100000000000000110000 L
b0011 M
b00000001100000010 N
b00000000000000000 P
b0101 B
b00000001100000010 Q
b00000000000110000 R
b0000000000110000 S
b00000000000000000 T
b00000 "0
0U
0W
b00000000000010000 Z
b0000000000100000 [
b01 E
b000000000000000000000000000000000000000000000000 ]
#290
0"B
#295
1^
b0011 "A
1"B
b01110 K
b00000001000000010001000100000000 L
b0000000011000000001100010000000000110001001100000011000100100000 <
b1010 M
b000000000000000000000000000000000000001000000000 \
b00000000100000010 N
b01 _
b00000001 `
b0110 B
b00000000100000010 Q
b00000000000000000 R
b0000000100000001 S
b01101 "0
1V
b00000001100000010 X
b0000000000110000 [
b10 E
#300
0"B
#305
0^
b1010 "A
1"B
b01111 K
b00010001000100000001000100010000 L
b1011 M
b00000000000000001 N
b000000000000000000000000000000000000001100000000 \
b00 _
b00010001 `
b01 a
b0111 B
b00000000000000001 Q
b00001000100010000 R
b0001000100010000 S
b01110 "0
b00000000100000010 X
b00000000000000000 Y
b00000001100010010 Z
b0000000100000001 [
b11 E
b000000000000000000000000000000000000001000000000 ]
#310
0"B
#315
b00 H
b1011 "A
1"B
b01100 K
b00110011001110100101001101001000010010010100011001010100 k
b00010001001000000001000100100000 L
b00 E
b0000 M
b00000000100000000 N
b1000 B
b10 F
1C
b00000000100000000 Q
b000 D
b00001000100100000 R
b0001000100100000 S
b01111 "0
1U
0V
b00000000000000001 X
b00001000100010000 Y
b00000000100000010 Z
b0001000100010000 [
b000000000000000000000000000000110001010100010010 \
b000000000000000000000000000000000000010100000000 ]
b01 G
#320
0"B
#325
0I
b0000 "A
1J
1"B
b0101001101001000010010010100011001010100 j
b01000 K
b00000000 g
b00010001001100000001000100110000 L
b1000 M
b00000000000000000 N
0?
1@
b0000 B
b00 F
0C
b00000000000000000 Q
b00001000100110000 R
b0001000100110000 S
b01100 "0
b00000000100000000 X
b00001000100010001 Z
b0001000100100000 [
b000000000000000000000000000100010011001000100000 \
b000000000000000000000000000000000000000000000000 ]
#330
0"B
#335
b00010000 `
b0001 B
b00001000000110000 R
b0001000000110000 S
b01 E
b01000 "0
0U
b1000 "A
0J
1"B
b00000000000000000 X
b00001 K
b00001001000010000 Z
b00010000001100000001000000110000 L
b0001000100110000 [
b000000000000000000000001001001000100001100100000 \
b1001 M
1O
#340
0"B
#345
1^
b1001 "A
1"B
b00010 K
b00000000000000000000000000000000 L
b1010 M
b000000000000000000000001001101100111001100000000 \
0O
b00000000 `
b0010 B
b00000000000000000 R
b0000000000000000 S
b00010010010001000 T
b00001 "0
1V
b00001000100010000 Z
b0001000000110000 [
b10 E
b000000000000000000000001001001000100001100100000 ]
#350
0"B
#355
0^
b1010 "A
1"B
b00011 K
b00000000000100000000000000010000 L
b1011 M
b00000000000000001 N
b000000000000000000000001000101000011001100000000 \
1O
b00000000000000001 P
b00 a
b0011 B
b00000000000000001 Q
b00000000000010000 R
b0000000000010000 S
b00100101101010110 T
b00010 "0
b00000000000000000 Y
b0000000000000000 [
b11 E
b000000000000000000000010010110101011011000100000 ]
#360
0"B
#365
b01 H
b00000000000000001 "<
b1011 "A
1"B
b00000 K
b00000000001000000000000000100000 L
b00 E
b1100 M
0O
b0100 B
b01 F
b00000000000100000 R
b0000000000100000 S
b00110110111011101 T
b00011 "0
1U
0V
b00000000000000001 X
b00000000000010000 Y
b00000000000000000 Z
b0000000000010000 [
b000000000000000000000000000000000000000000000000 \
b000000000000000000000011011011101110100100100000 ]
b00 G
#370
0"B
#375
1I
b1100 "A
1"B
b01101 K
b00000001 g
b00000000001100000000000000110000 L
b1101 M
b00000000000000010 N
1O
b00000000000000010 P
b0101 B
b00000000000000010 Q
b00000000000110000 R
b0000000000110000 S
b00000000000000000 T
b00000 "0
0U
b00000000000010001 Z
b0000000000100000 [
b01 E
b000000000000000000000000000000000000000000000000 ]
#380
0"B
#385
b00000000000000010 ">
1^
b1101 "A
1"B
b01110 K
b00000001000000010001000100000000 L
b1110 M
b000000000000000000000000000000000000001000100000 \
0O
b01 _
b00000001 `
b0110 B
b00000000000000000 R
b0000000100000001 S
b01101 "0
1V
b00000000000000010 X
b0000000000110000 [
b10 E
#390
0"B
#395
0^
b1110 "A
1"B
b01111 K
b001100000011101001001001010001000100110001000101 k
b00010001000100000001000100010000 L
b1111 M
b00000000000000011 N
b000000000000000000000000000000000000001100110000 \
1O
b00 _
b00000000000000011 P
b00010001 `
b01 a
b0111 B
b00000000000000011 Q
b00001000100010000 R
b0001000100010000 S
b01110 "0
b00000000000000000 Y
b00000000000010010 Z
b0000000100000001 [
b11 E
b000000000000000000000000000000000000001000100000 ]
#400
0"B
#405
b00 H
b00000000000000011 "@
b1111 "A
1"B
b01001001010001000100110001000101 j
b01100 K
b00010001001000000001000100100000 L
b00 E
b0000 M
0O
0@
b00000000000000000 P
1A
b1000 B
b10 F
1C
b00001000100100000 R
b0001000100100000 S
b01111 "0
1U
0V
b00000000000000011 X
b00001000100010000 Y
b00000000000000010 Z
b0001000100010000 [
b000000000000000000000000000000000001001000010010 \
b000000000000000000000000000000000000010101010000 ]
b01 G
#410
0"B
#415
b0000 B
b00 F
b00000000000000000 N
b00000000000000000 Q
b00001000100110000 R
b0001000100110000 S
b01100 "0
0I
b0000 "A
1J
1"B
b01000 K
b00000000 g
b00001000100010011 Z
b00010001001100000001000100110000 L
b0001000100100000 [
b000000000000000000000000000000000010001000100000 \
b000000000000000000000000000000000000000000000000 ]
#420
0"B
#425
b00010000 `
b00001000000110000 R
b0001000000110000 S
b01000 "0
0J
1"B
b00000000000000000 X
b001100010011101001001100010011110100000101000100 k
b00010000001100000001000000110000 L
b0001000100110000 [
1=
b000000000000000000000001001001000110010101100000 \
#430
0"B
#435
0A
0C
b1000 M
1"B
b01001100010011110100000101000100 j
b00001000100010000 Z
b0001000000110000 [
0=
b000000000000000000000001001001010111011010010000 \
1>
1O
#440
0"B
#445
b00000000000000001 P
b0001 B
0U
b1000 "A
1"B
b00001 K
b01 E
b1010 M
b000000000000000000000001000101000011001100000000 \
#450
0"B
#455
b00000000000000010 P
b00000000 `
b0010 B
b00000000000000001 Q
b00000000000000001 N
b00000000000000000 R
b0000000000000000 S
b00010001010000110 T
b00001 "0
1^
b1010 "A
1V
1"B
b00010 K
b00000000000000000000000000000000 L
b10 E
b1100 M
b000000000000000000000001000101000011001100000000 ]
#460
0"B
#465
0^
b1100 "A
1"B
b00011 K
b001100100011101001010000010100100100111101000011010001010101001101010011 k
b00000000000100000000000000010000 L
1l
b1110 M
1m
b00000000000000010 N
b00000000000000011 P
b00 a
b0011 B
b00000000000000010 Q
1C
b00000000000010000 R
b0000000000010000 S
b00100010100001100 T
b00010 "0
b00000000000000001 X
b00000000000000000 Y
b0000000000000000 [
b11 E
b000000000000000000000010001010000110011000000000 ]
#470
0"B
#475
b01 H
b1110 "A
1"B
b01010000010100100100111101000011010001010101001101010011 j
b00000 K
b00000000001000000000000000100000 L
0l
b00 E
0m
b0010 M
0>
b00000000000000011 N
1?
b00110011110010011 P
0O
b0000 B
b00000000000000011 Q
0C
b00000000000100000 R
b001 D
b0000000000100000 S
b00110011110010011 T
b00011 "0
1U
0V
b00000000000000010 X
b00000000000010000 Y
b00000000000000001 Z
b0000000000010000 [
b000000000000000000000000000000000000000000000000 \
b000000000000000000000011001111001001100100000000 ]
b00 G
#480
0"B
#485
b0010 "A
1"B
b00001 K
b00000000001100000000000000110000 L
b0000 M
b00000000100000000 N
b000000000000000000000000000000000000000000010000 \
b00000000000000000 P
b0001 B
b00000000100000000 Q
b00000000000110000 R
b0000000000110000 S
b00000000000000000 T
b00000 "0
0U
b00000000000000011 X
b00000000000010010 Z
b0000000000100000 [
b01 E
b000000000000000000000000000000000000000000000000 ]
#490
0"B
#495
1^
b0000 "A
1"B
b00010 K
b00000000000000000000000000000000 L
b1000 M
b00000000000000000 N
b000000000000000000000000000000000000001001000000 \
b0010 B
b00000000000000000 Q
b00000000000000000 R
b0000000000000000 S
b00001 "0
1V
b00000000100000000 X
b00000000000010011 Z
b0000000000110000 [
b10 E
b000000000000000000000000000000000000000000010000 ]
#500
0"B
#505
b0011 B
b01 b
b00000000000010000 R
b0000000000010000 S
b11 E
b00010 "0
0^
b1000 "A
b00000000000000000 X
1"B
b00000000000000000 Y
b00011 K
b00000000100010000 Z
b00000000000100000000000000010000 L
b0000000000000000 [
b000000000000000000000000000000000000001110010000 \
b1001 M
b000000000000000000000000000000000000001001010000 ]
#510
0"B
#515
b00 H
b1001 "A
1"B
b00000 K
b00000000001000000000000000100000 L
b0000 M
b000000000000000000000000000000000000000000000000 \
b0100 B
b000000000000000000000000000000000000010111100000 ]
b011 D
b00000000000100000 R
b0000000000100000 S
b00011 "0
1U
0V
b00000000000010000 Y
b00000000000000000 Z
b0000000000010000 [
b00 E
b01 F
#520
0"B
#525
b0101 B
b00000000000110000 R
b0000000000110000 S
b00000 "0
0U
1I
b0000 "A
1"B
b01101 K
b00000001 g
b00000000000010000 Z
b00000000001100000000000000110000 L
b0000000000100000 [
b01 E
b0011 M
b000000000000000000000000000000000000000000000000 ]
#530
0"B
#535
1^
b0011 "A
1"B
b01110 K
b00000001000000010001000100000000 L
b1010 M
b000000000000000000000000000000000000001000000000 \
b00000000100000010 N
b01 _
b00000001 `
b0110 B
b00000000100000010 Q
b00000000000000000 R
b0000000100000001 S
b01101 "0
1V
b0000000000110000 [
b10 E
#540
0"B
